{
  "routes": [
    {
      "method": "GET",
      "path": "/typeplats",
      "handler": "Typeplat.find",
      "config": {
        "policies": []
      }
    },
    {
      "method": "GET",
      "path": "/typeplats/count",
      "handler": "Typeplat.count",
      "config": {
        "policies": []
      }
    },
    {
      "method": "GET",
      "path": "/typeplats/:id",
      "handler": "Typeplat.findOne",
      "config": {
        "policies": []
      }
    },
    {
      "method": "POST",
      "path": "/typeplats",
      "handler": "Typeplat.create",
      "config": {
        "policies": []
      }
    },
    {
      "method": "PUT",
      "path": "/typeplats/:id",
      "handler": "Typeplat.update",
      "config": {
        "policies": []
      }
    },
    {
      "method": "DELETE",
      "path": "/typeplats/:id",
      "handler": "Typeplat.destroy",
      "config": {
        "policies": []
      }
    }
  ]
}
