{
  "connection": "default",
  "collectionName": "photos",
  "info": {
    "name": "photo",
    "description": ""
  },
  "options": {
    "increments": true,
    "timestamps": true,
    "comment": ""
  },
  "attributes": {
    "description": {
      "type": "text"
    },
    "image": {
      "model": "file",
      "via": "related",
      "plugin": "upload",
      "required": true
    },
    "order": {
      "type": "integer"
    },
    "active": {
      "default": true,
      "type": "boolean"
    }
  }
}